{
    "RN ten Doeschate": {
        "balls": 6,
        "runs": 4,
        "average": "4.00"
    },
    "J Yadav": {
        "balls": 41,
        "runs": 28,
        "average": "4.10"
    },
    "R Ashwin": {
        "balls": 239,
        "runs": 228,
        "average": "5.72"
    },
    "S Nadeem": {
        "balls": 43,
        "runs": 42,
        "average": "5.86"
    },
    "V Kohli": {
        "balls": 10,
        "runs": 10,
        "average": "6.00"
    },
    "Z Khan": {
        "balls": 154,
        "runs": 158,
        "average": "6.16"
    },
    "Parvez Rasool": {
        "balls": 29,
        "runs": 30,
        "average": "6.21"
    },
    "MC Henriques": {
        "balls": 156,
        "runs": 163,
        "average": "6.27"
    },
    "MA Starc": {
        "balls": 271,
        "runs": 306,
        "average": "6.77"
    },
    "Sandeep Sharma": {
        "balls": 310,
        "runs": 355,
        "average": "6.87"
    }
}